…
I also meanwhile have added a log file to the app that anonymously stores data about which articles that have been clicked on. The code below shows the 20 most clicked on articles so far:

```r
dat = read.csv("article_click.csv")

dat %>%
  group_by(article) %>%
  summarize(count=n()) %>%
  na.omit %>%
  arrange(desc(count)) %>%
  print(n=20)
```

```
## # A tibble: 699 x 2
##    article                                                           count
##    <fct>                                                             <int>
##  1 A Macroeconomic Model of Price Swings in the Housing Market          27
##  2 Job Polarization and Jobless Recoveries                              20
##  3 Tax Evasion and Inequality                                           19
##  4 Public Debt and Low Interest Rates                                   16
##  5 An Empirical Model of Tax Convexity and Self-Employment              13
##  6 Alcohol and Self-Control: A Field Experiment in India                11
##  7 Drug Innovations and Welfare Measures Computed from Market Deman~    11
##  8 Food Deserts and the Causes of Nutritional Inequality                11
##  9 Some Causal Effects of an Industrial Policy                          11
## 10 Costs  Demand  and Producer Price Changes                            10
## 11 Breaking Bad: Mechanisms of Social Influence and the Path to Cri~     9
## 12 Government Involvement in the Corporate Governance of Banks           8
## 13 Performance in Mixed-sex and Single-sex Tournaments: What We Can~     8
## 14 Disease and Gender Gaps in Human Capital Investment: Evidence fr~     7
## 15 Housing Constraints and Spatial Misallocation                         7
## 16 Inherited Control and Firm Performance                                7
## 17 Labor Supply and the Value of Non-work Time: Experimental Estima~     7
## 18 Pricing in the Market for Anticancer Drugs                            7
## 19 The Arrival of Fast Internet and Employment in Africa                 7
## 20 The Economic Benefits of Pharmaceutical Innovations: The Case of~     7
## # ... with 679 more rows
```
…
