…
  mv = cumsum(is.vaccinated)[m.analyse]
  mc = m.analyse - mv
  
  prob.above.VE.min = pbeta(theta.max,shape1 = a0+mv, shape2=b0+mc, lower.tail=TRUE)
  # Returning results as matrix is faster than as data frame
  cbind(runid=runid, m=m.analyse, mv=mv,mc=mc, prob.above.VE.min)
}
set.seed(42)
dat = simulate.trial() %>% as_tibble
dat
```

```
## # A tibble: 164 x 5
##    runid     m    mv    mc prob.above.VE.min
##    <dbl> <dbl> <dbl> <dbl>             <dbl>
##  1     1     1     0     1             0.759
##  2     1     2     0     2             0.869
##  3     1     3     1     2             0.618
##  4     1     4     1     3             0.746
##  5     1     5     1     4             0.834
##  6     1     6     1     5             0.893
##  7     1     7     1     6             0.932
##  8     1     8     2     6             0.828
##  9     1     9     2     7             0.881
## 10     1    10     2     8             0.919
## # ... with 154 more rows
```
…
