…
I also have a log file that anonymously stores data about which articles that have been clicked on. The code below shows the 20 most clicked on articles so far:

```r
dat = read.csv("article_click.csv")

dat %>%
  group_by(article) %>%
  summarize(count=n()) %>%
  na.omit %>%
  arrange(desc(count)) %>%
  print(n=20)
```

```
## # A tibble: 2,707 x 2
##    article                                                                 count
##    <fct>                                                                   <int>
##  1 Consumer Spending during Unemployment: Positive and Normative Implicat~    50
##  2 Do Expert Reviews Affect the Demand for Wine?                              44
##  3 Tax Evasion and Inequality                                                 38
##  4 A Macroeconomic Model of Price Swings in the Housing Market                35
##  5 Is Your Lawyer a Lemon? Incentives and Selection in the Public Provisi~    33
##  6 The Welfare Effects of Social Media                                        31
##  7 The Rise of Market Power and the Macroeconomic Implications                29
##  8 Carbon Taxes and CO2 Emissions: Sweden as a Case Study                     27
##  9 Public Debt and Low Interest Rates                                         27
## 10 The Sad Truth about Happiness Scales                                       25
## 11 Job Polarization and Jobless Recoveries                                    24
## 12 The New Tools of Monetary Policy                                           24
## 13 Alcohol and Self-Control: A Field Experiment in India                      23
## 14 Disease and Gender Gaps in Human Capital Investment: Evidence from Nig~    23
## 15 Some Causal Effects of an Industrial Policy                                23
## 16 Food Deserts and the Causes of Nutritional Inequality                      22
## 17 Minimum Wage and Real Wage Inequality: Evidence from Pass-Through to R~    22
## 18 The Cost of Reducing Greenhouse Gas Emissions                              22
## 19 Adaptation to Climate Change: Evidence from US Agriculture                 21
## 20 Do Parents Value School Effectiveness?                                     21
## # ... with 2,687 more rows
```
…
